certifi==2024.2.2
charset-normalizer==3.3.2
idna==3.7
machine==0.0.1
numpy==1.21.6
opencv-python==4.7.0.72
pkg_resources==0.0.0
pycrypto==2.6.1
requests==2.31.0
RPi.GPIO==0.7.1
spidev==3.6
urllib3==2.0.7
